{
    "$schema": "http://json-schema.org/draft-07/schema",
    "$id": "https://crossref.org/item-graph/schemas/envelope-batch.schema.json",
    "title": "Envelope batch schema",
    "description": "Schema describing EnvelopeBatch records",
    "type": "object",
    "properties": {
        "envelopes": {
            "type": "array",
            "items": {
                "type": "object",
                "properties": {
                    "itemTrees": {
                        "type": "array",
                        "items": {
                            "$ref": "item.schema.json"
                        },
                        "minItems": 1
                    },
                    "assertion":{
                        "type": "object",
                        "properties": {
                            "assertedAt": {
                                "description": "ISO 8601 formatted Datetime string",
                                "type": "string"
                            },
                            "mergeStrategy": {
                                "oneOf": [
                                    {
                                        "const": "UNION_CLOSED"
                                    },
                                    {
                                        "const": "NAIVE"
                                    },
                                    {
                                        "const": "NONE"
                                    }
                                ]
                            },
                            "assertingParty":{
                                "$ref": "item.schema.json"
                            }
                        },
                        "required": ["assertedAt", "mergeStrategy", "assertingParty"]
                    }
                },
                "required": ["itemTrees", "assertion"]
            },
            "minItems": 1
        },
        "provenance": {
            "type": "object",
            "properties": {
                "userAgent": {
                    "type": "string"
                },
                "externalTrace": {
                    "type": "string"
                },
                "envelopeBatchPk": {
                    "type": "integer"
                }
            },
            "required": [
                "userAgent"
            ]
        }
    },
    "required": [
        "envelopes",
        "provenance"
    ]
}